{
  "artifactGenerations" : [ ],
  "artifactId" : "my-project",
  "groupId" : "org.finos.legend.test",
  "metamodelDependencies" : [ ],
  "projectDependencies" : [ ],
  "projectId" : "UAT-28003378",
  "projectStructureVersion" : {
    "extensionVersion" : 1,
    "version" : 11
  },
  "projectType" : "PROTOTYPE"
}